[
  {
    "denomination": 100,
    "label": "one pound"
  },
  {
    "denomination": 50,
    "label": "fifty pence"
  },
  {
    "denomination": 20,
    "label": "twenty pence"
  },
  {
    "denomination": 10,
    "label": "ten pence"
  },
  {
    "denomination": 5,
    "label": "five pence"
  },
  {
    "denomination": 2,
    "label": "two pence"
  },
  {
    "denomination": 1,
    "label": "one pence"
  }
]